#Command: "C:\Program Files (x86)\Microsoft Visual Studio\2017\Professional\VC\Tools\MSVC\14.11.25503\bin\HostX86\x86\link.exe" /ERRORREPORT:PROMPT @C:\Users\100659791\AppData\Local\Temp\tmp90d4b5cba84641f4809e5b152f2bf4c5.rsp
^C:\USERS\100659791\DOCUMENTS\COCOS\PROJECTS\BLIGHT\PROJ.WIN32\DEBUG.WIN32\ANIM.OBJ|C:\USERS\100659791\DOCUMENTS\COCOS\PROJECTS\BLIGHT\PROJ.WIN32\DEBUG.WIN32\APPDELEGATE.OBJ|C:\USERS\100659791\DOCUMENTS\COCOS\PROJECTS\BLIGHT\PROJ.WIN32\DEBUG.WIN32\DISPLAYHANDLER.OBJ|C:\USERS\100659791\DOCUMENTS\COCOS\PROJECTS\BLIGHT\PROJ.WIN32\DEBUG.WIN32\ENEMY.OBJ|C:\USERS\100659791\DOCUMENTS\COCOS\PROJECTS\BLIGHT\PROJ.WIN32\DEBUG.WIN32\GAME.RES|C:\USERS\100659791\DOCUMENTS\COCOS\PROJECTS\BLIGHT\PROJ.WIN32\DEBUG.WIN32\INPUTHANDLER.OBJ|C:\USERS\100659791\DOCUMENTS\COCOS\PROJECTS\BLIGHT\PROJ.WIN32\DEBUG.WIN32\MAIN.OBJ|C:\USERS\100659791\DOCUMENTS\COCOS\PROJECTS\BLIGHT\PROJ.WIN32\DEBUG.WIN32\MENUBUTTON.OBJ|C:\USERS\100659791\DOCUMENTS\COCOS\PROJECTS\BLIGHT\PROJ.WIN32\DEBUG.WIN32\MENUSCREEN.OBJ|C:\USERS\100659791\DOCUMENTS\COCOS\PROJECTS\BLIGHT\PROJ.WIN32\DEBUG.WIN32\PAUSEMENULAYER.OBJ|C:\USERS\100659791\DOCUMENTS\COCOS\PROJECTS\BLIGHT\PROJ.WIN32\DEBUG.WIN32\PLAYER.OBJ|C:\USERS\100659791\DOCUMENTS\COCOS\PROJECTS\BLIGHT\PROJ.WIN32\DEBUG.WIN32\POPOUT.OBJ|C:\USERS\100659791\DOCUMENTS\COCOS\PROJECTS\BLIGHT\PROJ.WIN32\DEBUG.WIN32\SHAPE.OBJ|C:\USERS\100659791\DOCUMENTS\COCOS\PROJECTS\BLIGHT\PROJ.WIN32\DEBUG.WIN32\SPLASHSCREEN.OBJ|C:\USERS\100659791\DOCUMENTS\COCOS\PROJECTS\BLIGHT\PROJ.WIN32\DEBUG.WIN32\TESTSCENE.OBJ|C:\USERS\100659791\DOCUMENTS\COCOS\PROJECTS\BLIGHT\PROJ.WIN32\DEBUG.WIN32\UTILITY.OBJ
C:\USERS\100659~1\APPDATA\LOCAL\TEMP\LNK{C09333BE-C94C-4454-A4A2-9BC2488B9931}.TMP
#Command: "C:\Program Files (x86)\Microsoft Visual Studio\2017\Professional\VC\Tools\MSVC\14.11.25503\bin\HostX86\x86\link.exe" /ERRORREPORT:PROMPT @C:\Users\100659791\AppData\Local\Temp\tmp53c8f7df607c42ba88d7893d9c57e198.rsp
^C:\USERS\100659791\DOCUMENTS\COCOS\PROJECTS\BLIGHT\PROJ.WIN32\DEBUG.WIN32\ANIM.OBJ|C:\USERS\100659791\DOCUMENTS\COCOS\PROJECTS\BLIGHT\PROJ.WIN32\DEBUG.WIN32\APPDELEGATE.OBJ|C:\USERS\100659791\DOCUMENTS\COCOS\PROJECTS\BLIGHT\PROJ.WIN32\DEBUG.WIN32\DISPLAYHANDLER.OBJ|C:\USERS\100659791\DOCUMENTS\COCOS\PROJECTS\BLIGHT\PROJ.WIN32\DEBUG.WIN32\ENEMY.OBJ|C:\USERS\100659791\DOCUMENTS\COCOS\PROJECTS\BLIGHT\PROJ.WIN32\DEBUG.WIN32\GAME.RES|C:\USERS\100659791\DOCUMENTS\COCOS\PROJECTS\BLIGHT\PROJ.WIN32\DEBUG.WIN32\INPUTHANDLER.OBJ|C:\USERS\100659791\DOCUMENTS\COCOS\PROJECTS\BLIGHT\PROJ.WIN32\DEBUG.WIN32\MAIN.OBJ|C:\USERS\100659791\DOCUMENTS\COCOS\PROJECTS\BLIGHT\PROJ.WIN32\DEBUG.WIN32\MENUBUTTON.OBJ|C:\USERS\100659791\DOCUMENTS\COCOS\PROJECTS\BLIGHT\PROJ.WIN32\DEBUG.WIN32\MENUSCREEN.OBJ|C:\USERS\100659791\DOCUMENTS\COCOS\PROJECTS\BLIGHT\PROJ.WIN32\DEBUG.WIN32\PAUSEMENULAYER.OBJ|C:\USERS\100659791\DOCUMENTS\COCOS\PROJECTS\BLIGHT\PROJ.WIN32\DEBUG.WIN32\PLAYER.OBJ|C:\USERS\100659791\DOCUMENTS\COCOS\PROJECTS\BLIGHT\PROJ.WIN32\DEBUG.WIN32\POPOUT.OBJ|C:\USERS\100659791\DOCUMENTS\COCOS\PROJECTS\BLIGHT\PROJ.WIN32\DEBUG.WIN32\SHAPE.OBJ|C:\USERS\100659791\DOCUMENTS\COCOS\PROJECTS\BLIGHT\PROJ.WIN32\DEBUG.WIN32\SPLASHSCREEN.OBJ|C:\USERS\100659791\DOCUMENTS\COCOS\PROJECTS\BLIGHT\PROJ.WIN32\DEBUG.WIN32\SWORDHIT.OBJ|C:\USERS\100659791\DOCUMENTS\COCOS\PROJECTS\BLIGHT\PROJ.WIN32\DEBUG.WIN32\TESTSCENE.OBJ|C:\USERS\100659791\DOCUMENTS\COCOS\PROJECTS\BLIGHT\PROJ.WIN32\DEBUG.WIN32\UTILITY.OBJ
C:\USERS\100659~1\APPDATA\LOCAL\TEMP\LNK{49701E7C-BC20-4D04-9392-8D054DD77FC4}.TMP
#Command: "C:\Program Files (x86)\Microsoft Visual Studio\2017\Professional\VC\Tools\MSVC\14.11.25503\bin\HostX86\x86\link.exe" /ERRORREPORT:PROMPT @C:\Users\100659791\AppData\Local\Temp\tmp4bf9b3563620465fb80c8d933c124b87.rsp
^C:\USERS\100659791\DOCUMENTS\COCOS\PROJECTS\BLIGHT\PROJ.WIN32\DEBUG.WIN32\ANIM.OBJ|C:\USERS\100659791\DOCUMENTS\COCOS\PROJECTS\BLIGHT\PROJ.WIN32\DEBUG.WIN32\APPDELEGATE.OBJ|C:\USERS\100659791\DOCUMENTS\COCOS\PROJECTS\BLIGHT\PROJ.WIN32\DEBUG.WIN32\DISPLAYHANDLER.OBJ|C:\USERS\100659791\DOCUMENTS\COCOS\PROJECTS\BLIGHT\PROJ.WIN32\DEBUG.WIN32\ENEMY.OBJ|C:\USERS\100659791\DOCUMENTS\COCOS\PROJECTS\BLIGHT\PROJ.WIN32\DEBUG.WIN32\GAME.RES|C:\USERS\100659791\DOCUMENTS\COCOS\PROJECTS\BLIGHT\PROJ.WIN32\DEBUG.WIN32\INPUTHANDLER.OBJ|C:\USERS\100659791\DOCUMENTS\COCOS\PROJECTS\BLIGHT\PROJ.WIN32\DEBUG.WIN32\MAIN.OBJ|C:\USERS\100659791\DOCUMENTS\COCOS\PROJECTS\BLIGHT\PROJ.WIN32\DEBUG.WIN32\MENUBUTTON.OBJ|C:\USERS\100659791\DOCUMENTS\COCOS\PROJECTS\BLIGHT\PROJ.WIN32\DEBUG.WIN32\MENUSCREEN.OBJ|C:\USERS\100659791\DOCUMENTS\COCOS\PROJECTS\BLIGHT\PROJ.WIN32\DEBUG.WIN32\PAUSEMENULAYER.OBJ|C:\USERS\100659791\DOCUMENTS\COCOS\PROJECTS\BLIGHT\PROJ.WIN32\DEBUG.WIN32\PLAYER.OBJ|C:\USERS\100659791\DOCUMENTS\COCOS\PROJECTS\BLIGHT\PROJ.WIN32\DEBUG.WIN32\POPOUT.OBJ|C:\USERS\100659791\DOCUMENTS\COCOS\PROJECTS\BLIGHT\PROJ.WIN32\DEBUG.WIN32\SHAPE.OBJ|C:\USERS\100659791\DOCUMENTS\COCOS\PROJECTS\BLIGHT\PROJ.WIN32\DEBUG.WIN32\SPLASHSCREEN.OBJ|C:\USERS\100659791\DOCUMENTS\COCOS\PROJECTS\BLIGHT\PROJ.WIN32\DEBUG.WIN32\SWORDHIT.OBJ|C:\USERS\100659791\DOCUMENTS\COCOS\PROJECTS\BLIGHT\PROJ.WIN32\DEBUG.WIN32\TESTSCENE.OBJ|C:\USERS\100659791\DOCUMENTS\COCOS\PROJECTS\BLIGHT\PROJ.WIN32\DEBUG.WIN32\UTILITY.OBJ
C:\USERS\100659~1\APPDATA\LOCAL\TEMP\LNK{95D0E740-083C-4556-B1C4-C088E9B57A71}.TMP
#Command: "C:\Program Files (x86)\Microsoft Visual Studio\2017\Professional\VC\Tools\MSVC\14.11.25503\bin\HostX86\x86\link.exe" /ERRORREPORT:PROMPT @C:\Users\100659791\AppData\Local\Temp\tmpc1435d4170c84b12bd8ae7392b4dc23c.rsp
^C:\USERS\100659791\DOCUMENTS\COCOS\PROJECTS\BLIGHT\PROJ.WIN32\DEBUG.WIN32\ANIM.OBJ|C:\USERS\100659791\DOCUMENTS\COCOS\PROJECTS\BLIGHT\PROJ.WIN32\DEBUG.WIN32\APPDELEGATE.OBJ|C:\USERS\100659791\DOCUMENTS\COCOS\PROJECTS\BLIGHT\PROJ.WIN32\DEBUG.WIN32\AUDIOPLAYER.OBJ|C:\USERS\100659791\DOCUMENTS\COCOS\PROJECTS\BLIGHT\PROJ.WIN32\DEBUG.WIN32\CONTROLLER.OBJ|C:\USERS\100659791\DOCUMENTS\COCOS\PROJECTS\BLIGHT\PROJ.WIN32\DEBUG.WIN32\DISPLAYHANDLER.OBJ|C:\USERS\100659791\DOCUMENTS\COCOS\PROJECTS\BLIGHT\PROJ.WIN32\DEBUG.WIN32\ENEMY.OBJ|C:\USERS\100659791\DOCUMENTS\COCOS\PROJECTS\BLIGHT\PROJ.WIN32\DEBUG.WIN32\ENEMYHIT.OBJ|C:\USERS\100659791\DOCUMENTS\COCOS\PROJECTS\BLIGHT\PROJ.WIN32\DEBUG.WIN32\GAME.RES|C:\USERS\100659791\DOCUMENTS\COCOS\PROJECTS\BLIGHT\PROJ.WIN32\DEBUG.WIN32\INPUTHANDLER.OBJ|C:\USERS\100659791\DOCUMENTS\COCOS\PROJECTS\BLIGHT\PROJ.WIN32\DEBUG.WIN32\MAIN.OBJ|C:\USERS\100659791\DOCUMENTS\COCOS\PROJECTS\BLIGHT\PROJ.WIN32\DEBUG.WIN32\MENUBUTTON.OBJ|C:\USERS\100659791\DOCUMENTS\COCOS\PROJECTS\BLIGHT\PROJ.WIN32\DEBUG.WIN32\MENUSCREEN.OBJ|C:\USERS\100659791\DOCUMENTS\COCOS\PROJECTS\BLIGHT\PROJ.WIN32\DEBUG.WIN32\PAUSEMENULAYER.OBJ|C:\USERS\100659791\DOCUMENTS\COCOS\PROJECTS\BLIGHT\PROJ.WIN32\DEBUG.WIN32\PLAYER.OBJ|C:\USERS\100659791\DOCUMENTS\COCOS\PROJECTS\BLIGHT\PROJ.WIN32\DEBUG.WIN32\PLAYERSELECTSCREEN.OBJ|C:\USERS\100659791\DOCUMENTS\COCOS\PROJECTS\BLIGHT\PROJ.WIN32\DEBUG.WIN32\POPOUT.OBJ|C:\USERS\100659791\DOCUMENTS\COCOS\PROJECTS\BLIGHT\PROJ.WIN32\DEBUG.WIN32\SHAPE.OBJ|C:\USERS\100659791\DOCUMENTS\COCOS\PROJECTS\BLIGHT\PROJ.WIN32\DEBUG.WIN32\SPLASHSCREEN.OBJ|C:\USERS\100659791\DOCUMENTS\COCOS\PROJECTS\BLIGHT\PROJ.WIN32\DEBUG.WIN32\SWORDHIT.OBJ|C:\USERS\100659791\DOCUMENTS\COCOS\PROJECTS\BLIGHT\PROJ.WIN32\DEBUG.WIN32\TESTSCENE.OBJ|C:\USERS\100659791\DOCUMENTS\COCOS\PROJECTS\BLIGHT\PROJ.WIN32\DEBUG.WIN32\UTILITY.OBJ
C:\USERS\100659~1\APPDATA\LOCAL\TEMP\LNK{924ADEBD-6FCC-42BE-ABEC-7488DD0E2432}.TMP
#Command: "C:\Program Files (x86)\Microsoft Visual Studio\2017\Professional\VC\Tools\MSVC\14.11.25503\bin\HostX86\x86\link.exe" /ERRORREPORT:PROMPT @C:\Users\100659791\AppData\Local\Temp\tmp9d99ac751bba456dbe56d9f47ed25be0.rsp
^C:\USERS\100659791\DOCUMENTS\COCOS\PROJECTS\BLIGHT\PROJ.WIN32\DEBUG.WIN32\ANIM.OBJ|C:\USERS\100659791\DOCUMENTS\COCOS\PROJECTS\BLIGHT\PROJ.WIN32\DEBUG.WIN32\APPDELEGATE.OBJ|C:\USERS\100659791\DOCUMENTS\COCOS\PROJECTS\BLIGHT\PROJ.WIN32\DEBUG.WIN32\AUDIOPLAYER.OBJ|C:\USERS\100659791\DOCUMENTS\COCOS\PROJECTS\BLIGHT\PROJ.WIN32\DEBUG.WIN32\CONTROLLER.OBJ|C:\USERS\100659791\DOCUMENTS\COCOS\PROJECTS\BLIGHT\PROJ.WIN32\DEBUG.WIN32\DISPLAYHANDLER.OBJ|C:\USERS\100659791\DOCUMENTS\COCOS\PROJECTS\BLIGHT\PROJ.WIN32\DEBUG.WIN32\ENEMY.OBJ|C:\USERS\100659791\DOCUMENTS\COCOS\PROJECTS\BLIGHT\PROJ.WIN32\DEBUG.WIN32\ENEMYHIT.OBJ|C:\USERS\100659791\DOCUMENTS\COCOS\PROJECTS\BLIGHT\PROJ.WIN32\DEBUG.WIN32\GAME.RES|C:\USERS\100659791\DOCUMENTS\COCOS\PROJECTS\BLIGHT\PROJ.WIN32\DEBUG.WIN32\INPUTHANDLER.OBJ|C:\USERS\100659791\DOCUMENTS\COCOS\PROJECTS\BLIGHT\PROJ.WIN32\DEBUG.WIN32\MAIN.OBJ|C:\USERS\100659791\DOCUMENTS\COCOS\PROJECTS\BLIGHT\PROJ.WIN32\DEBUG.WIN32\MENUBUTTON.OBJ|C:\USERS\100659791\DOCUMENTS\COCOS\PROJECTS\BLIGHT\PROJ.WIN32\DEBUG.WIN32\MENUSCREEN.OBJ|C:\USERS\100659791\DOCUMENTS\COCOS\PROJECTS\BLIGHT\PROJ.WIN32\DEBUG.WIN32\PAUSEMENULAYER.OBJ|C:\USERS\100659791\DOCUMENTS\COCOS\PROJECTS\BLIGHT\PROJ.WIN32\DEBUG.WIN32\PLAYER.OBJ|C:\USERS\100659791\DOCUMENTS\COCOS\PROJECTS\BLIGHT\PROJ.WIN32\DEBUG.WIN32\PLAYERSELECTSCREEN.OBJ|C:\USERS\100659791\DOCUMENTS\COCOS\PROJECTS\BLIGHT\PROJ.WIN32\DEBUG.WIN32\POPOUT.OBJ|C:\USERS\100659791\DOCUMENTS\COCOS\PROJECTS\BLIGHT\PROJ.WIN32\DEBUG.WIN32\SHAPE.OBJ|C:\USERS\100659791\DOCUMENTS\COCOS\PROJECTS\BLIGHT\PROJ.WIN32\DEBUG.WIN32\SPLASHSCREEN.OBJ|C:\USERS\100659791\DOCUMENTS\COCOS\PROJECTS\BLIGHT\PROJ.WIN32\DEBUG.WIN32\STATSCREENLAYER.OBJ|C:\USERS\100659791\DOCUMENTS\COCOS\PROJECTS\BLIGHT\PROJ.WIN32\DEBUG.WIN32\SWORDHIT.OBJ|C:\USERS\100659791\DOCUMENTS\COCOS\PROJECTS\BLIGHT\PROJ.WIN32\DEBUG.WIN32\TESTSCENE.OBJ|C:\USERS\100659791\DOCUMENTS\COCOS\PROJECTS\BLIGHT\PROJ.WIN32\DEBUG.WIN32\UTILITY.OBJ
C:\USERS\100659~1\APPDATA\LOCAL\TEMP\LNK{861D721F-9B71-4F1C-9F9F-45E3FC1A1F27}.TMP
#Command: "C:\Program Files (x86)\Microsoft Visual Studio\2017\Enterprise\VC\Tools\MSVC\14.13.26128\bin\HostX86\x86\link.exe" /ERRORREPORT:PROMPT @C:\Users\100662175\AppData\Local\Temp\tmp88c27765dd23458e8e54cb701f191346.rsp
^C:\USERS\100662175\DOCUMENTS\BLIGHT\BLIGHT\PROJ.WIN32\DEBUG.WIN32\ANIM.OBJ|C:\USERS\100662175\DOCUMENTS\BLIGHT\BLIGHT\PROJ.WIN32\DEBUG.WIN32\APPDELEGATE.OBJ|C:\USERS\100662175\DOCUMENTS\BLIGHT\BLIGHT\PROJ.WIN32\DEBUG.WIN32\AUDIOPLAYER.OBJ|C:\USERS\100662175\DOCUMENTS\BLIGHT\BLIGHT\PROJ.WIN32\DEBUG.WIN32\CONTROLLER.OBJ|C:\USERS\100662175\DOCUMENTS\BLIGHT\BLIGHT\PROJ.WIN32\DEBUG.WIN32\DISPLAYHANDLER.OBJ|C:\USERS\100662175\DOCUMENTS\BLIGHT\BLIGHT\PROJ.WIN32\DEBUG.WIN32\ENEMY.OBJ|C:\USERS\100662175\DOCUMENTS\BLIGHT\BLIGHT\PROJ.WIN32\DEBUG.WIN32\ENEMYHIT.OBJ|C:\USERS\100662175\DOCUMENTS\BLIGHT\BLIGHT\PROJ.WIN32\DEBUG.WIN32\GAME.RES|C:\USERS\100662175\DOCUMENTS\BLIGHT\BLIGHT\PROJ.WIN32\DEBUG.WIN32\INPUTHANDLER.OBJ|C:\USERS\100662175\DOCUMENTS\BLIGHT\BLIGHT\PROJ.WIN32\DEBUG.WIN32\MAIN.OBJ|C:\USERS\100662175\DOCUMENTS\BLIGHT\BLIGHT\PROJ.WIN32\DEBUG.WIN32\MENUBUTTON.OBJ|C:\USERS\100662175\DOCUMENTS\BLIGHT\BLIGHT\PROJ.WIN32\DEBUG.WIN32\MENUSCREEN.OBJ|C:\USERS\100662175\DOCUMENTS\BLIGHT\BLIGHT\PROJ.WIN32\DEBUG.WIN32\PAUSEMENULAYER.OBJ|C:\USERS\100662175\DOCUMENTS\BLIGHT\BLIGHT\PROJ.WIN32\DEBUG.WIN32\PLAYER.OBJ|C:\USERS\100662175\DOCUMENTS\BLIGHT\BLIGHT\PROJ.WIN32\DEBUG.WIN32\PLAYERSELECTSCREEN.OBJ|C:\USERS\100662175\DOCUMENTS\BLIGHT\BLIGHT\PROJ.WIN32\DEBUG.WIN32\POPOUT.OBJ|C:\USERS\100662175\DOCUMENTS\BLIGHT\BLIGHT\PROJ.WIN32\DEBUG.WIN32\SHAPE.OBJ|C:\USERS\100662175\DOCUMENTS\BLIGHT\BLIGHT\PROJ.WIN32\DEBUG.WIN32\SPLASHSCREEN.OBJ|C:\USERS\100662175\DOCUMENTS\BLIGHT\BLIGHT\PROJ.WIN32\DEBUG.WIN32\STATSCREENLAYER.OBJ|C:\USERS\100662175\DOCUMENTS\BLIGHT\BLIGHT\PROJ.WIN32\DEBUG.WIN32\SWORDHIT.OBJ|C:\USERS\100662175\DOCUMENTS\BLIGHT\BLIGHT\PROJ.WIN32\DEBUG.WIN32\TESTSCENE.OBJ|C:\USERS\100662175\DOCUMENTS\BLIGHT\BLIGHT\PROJ.WIN32\DEBUG.WIN32\UTILITY.OBJ
C:\USERS\100662~1\APPDATA\LOCAL\TEMP\LNK{427007EA-3FE1-4D12-B3BF-F40D9346657A}.TMP
#Command: "C:\Program Files (x86)\Microsoft Visual Studio\2017\Enterprise\VC\Tools\MSVC\14.13.26128\bin\HostX86\x86\link.exe" /ERRORREPORT:PROMPT @C:\Users\100659791\AppData\Local\Temp\tmp81c787c7aa40456f92df933c85c41843.rsp
^C:\USERS\100659791\DOCUMENTS\COCOS\PROJECTS\BLIGHT\PROJ.WIN32\DEBUG.WIN32\ANIM.OBJ|C:\USERS\100659791\DOCUMENTS\COCOS\PROJECTS\BLIGHT\PROJ.WIN32\DEBUG.WIN32\APPDELEGATE.OBJ|C:\USERS\100659791\DOCUMENTS\COCOS\PROJECTS\BLIGHT\PROJ.WIN32\DEBUG.WIN32\AUDIOPLAYER.OBJ|C:\USERS\100659791\DOCUMENTS\COCOS\PROJECTS\BLIGHT\PROJ.WIN32\DEBUG.WIN32\CONTROLLER.OBJ|C:\USERS\100659791\DOCUMENTS\COCOS\PROJECTS\BLIGHT\PROJ.WIN32\DEBUG.WIN32\DISPLAYHANDLER.OBJ|C:\USERS\100659791\DOCUMENTS\COCOS\PROJECTS\BLIGHT\PROJ.WIN32\DEBUG.WIN32\ENEMY.OBJ|C:\USERS\100659791\DOCUMENTS\COCOS\PROJECTS\BLIGHT\PROJ.WIN32\DEBUG.WIN32\ENEMYHIT.OBJ|C:\USERS\100659791\DOCUMENTS\COCOS\PROJECTS\BLIGHT\PROJ.WIN32\DEBUG.WIN32\GAME.RES|C:\USERS\100659791\DOCUMENTS\COCOS\PROJECTS\BLIGHT\PROJ.WIN32\DEBUG.WIN32\INPUTHANDLER.OBJ|C:\USERS\100659791\DOCUMENTS\COCOS\PROJECTS\BLIGHT\PROJ.WIN32\DEBUG.WIN32\MAIN.OBJ|C:\USERS\100659791\DOCUMENTS\COCOS\PROJECTS\BLIGHT\PROJ.WIN32\DEBUG.WIN32\MENUBUTTON.OBJ|C:\USERS\100659791\DOCUMENTS\COCOS\PROJECTS\BLIGHT\PROJ.WIN32\DEBUG.WIN32\MENUSCREEN.OBJ|C:\USERS\100659791\DOCUMENTS\COCOS\PROJECTS\BLIGHT\PROJ.WIN32\DEBUG.WIN32\PAUSEMENULAYER.OBJ|C:\USERS\100659791\DOCUMENTS\COCOS\PROJECTS\BLIGHT\PROJ.WIN32\DEBUG.WIN32\PLAYER.OBJ|C:\USERS\100659791\DOCUMENTS\COCOS\PROJECTS\BLIGHT\PROJ.WIN32\DEBUG.WIN32\PLAYERSELECTSCREEN.OBJ|C:\USERS\100659791\DOCUMENTS\COCOS\PROJECTS\BLIGHT\PROJ.WIN32\DEBUG.WIN32\POPOUT.OBJ|C:\USERS\100659791\DOCUMENTS\COCOS\PROJECTS\BLIGHT\PROJ.WIN32\DEBUG.WIN32\SHAPE.OBJ|C:\USERS\100659791\DOCUMENTS\COCOS\PROJECTS\BLIGHT\PROJ.WIN32\DEBUG.WIN32\SPLASHSCREEN.OBJ|C:\USERS\100659791\DOCUMENTS\COCOS\PROJECTS\BLIGHT\PROJ.WIN32\DEBUG.WIN32\STATSCREENLAYER.OBJ|C:\USERS\100659791\DOCUMENTS\COCOS\PROJECTS\BLIGHT\PROJ.WIN32\DEBUG.WIN32\SWORDHIT.OBJ|C:\USERS\100659791\DOCUMENTS\COCOS\PROJECTS\BLIGHT\PROJ.WIN32\DEBUG.WIN32\TESTSCENE.OBJ|C:\USERS\100659791\DOCUMENTS\COCOS\PROJECTS\BLIGHT\PROJ.WIN32\DEBUG.WIN32\UTILITY.OBJ
C:\USERS\100659~1\APPDATA\LOCAL\TEMP\LNK{6ABBB6AA-484B-45B9-BC2D-1F5338AB605F}.TMP
#Command: "C:\Program Files (x86)\Microsoft Visual Studio\2017\Enterprise\VC\Tools\MSVC\14.13.26128\bin\HostX86\x86\link.exe" /ERRORREPORT:PROMPT @C:\Users\100659791\AppData\Local\Temp\tmp1bdafb5d82ab4a96be8b6a8e52149a36.rsp
^C:\USERS\100659791\DOCUMENTS\COCOS\PROJECTS\BLIGHT\PROJ.WIN32\DEBUG.WIN32\ANIM.OBJ|C:\USERS\100659791\DOCUMENTS\COCOS\PROJECTS\BLIGHT\PROJ.WIN32\DEBUG.WIN32\APPDELEGATE.OBJ|C:\USERS\100659791\DOCUMENTS\COCOS\PROJECTS\BLIGHT\PROJ.WIN32\DEBUG.WIN32\AUDIOPLAYER.OBJ|C:\USERS\100659791\DOCUMENTS\COCOS\PROJECTS\BLIGHT\PROJ.WIN32\DEBUG.WIN32\CONTROLLER.OBJ|C:\USERS\100659791\DOCUMENTS\COCOS\PROJECTS\BLIGHT\PROJ.WIN32\DEBUG.WIN32\DISPLAYHANDLER.OBJ|C:\USERS\100659791\DOCUMENTS\COCOS\PROJECTS\BLIGHT\PROJ.WIN32\DEBUG.WIN32\ENEMY.OBJ|C:\USERS\100659791\DOCUMENTS\COCOS\PROJECTS\BLIGHT\PROJ.WIN32\DEBUG.WIN32\ENEMYHIT.OBJ|C:\USERS\100659791\DOCUMENTS\COCOS\PROJECTS\BLIGHT\PROJ.WIN32\DEBUG.WIN32\GAME.RES|C:\USERS\100659791\DOCUMENTS\COCOS\PROJECTS\BLIGHT\PROJ.WIN32\DEBUG.WIN32\INPUTHANDLER.OBJ|C:\USERS\100659791\DOCUMENTS\COCOS\PROJECTS\BLIGHT\PROJ.WIN32\DEBUG.WIN32\MAIN.OBJ|C:\USERS\100659791\DOCUMENTS\COCOS\PROJECTS\BLIGHT\PROJ.WIN32\DEBUG.WIN32\MENUBUTTON.OBJ|C:\USERS\100659791\DOCUMENTS\COCOS\PROJECTS\BLIGHT\PROJ.WIN32\DEBUG.WIN32\MENUSCREEN.OBJ|C:\USERS\100659791\DOCUMENTS\COCOS\PROJECTS\BLIGHT\PROJ.WIN32\DEBUG.WIN32\PAUSEMENULAYER.OBJ|C:\USERS\100659791\DOCUMENTS\COCOS\PROJECTS\BLIGHT\PROJ.WIN32\DEBUG.WIN32\PLAYER.OBJ|C:\USERS\100659791\DOCUMENTS\COCOS\PROJECTS\BLIGHT\PROJ.WIN32\DEBUG.WIN32\PLAYERSELECTSCREEN.OBJ|C:\USERS\100659791\DOCUMENTS\COCOS\PROJECTS\BLIGHT\PROJ.WIN32\DEBUG.WIN32\POPOUT.OBJ|C:\USERS\100659791\DOCUMENTS\COCOS\PROJECTS\BLIGHT\PROJ.WIN32\DEBUG.WIN32\SHAPE.OBJ|C:\USERS\100659791\DOCUMENTS\COCOS\PROJECTS\BLIGHT\PROJ.WIN32\DEBUG.WIN32\SPLASHSCREEN.OBJ|C:\USERS\100659791\DOCUMENTS\COCOS\PROJECTS\BLIGHT\PROJ.WIN32\DEBUG.WIN32\STATSCREENLAYER.OBJ|C:\USERS\100659791\DOCUMENTS\COCOS\PROJECTS\BLIGHT\PROJ.WIN32\DEBUG.WIN32\SWORDHIT.OBJ|C:\USERS\100659791\DOCUMENTS\COCOS\PROJECTS\BLIGHT\PROJ.WIN32\DEBUG.WIN32\TESTSCENE.OBJ|C:\USERS\100659791\DOCUMENTS\COCOS\PROJECTS\BLIGHT\PROJ.WIN32\DEBUG.WIN32\UTILITY.OBJ
C:\USERS\100659~1\APPDATA\LOCAL\TEMP\LNK{64F32677-8F77-447A-AEAA-01706AB91638}.TMP
